{
  "Aargauerzeitung.ch": {
    "allow_cookies": 1,
    "domain": "aargauerzeitung.ch",
    "useragent": "googlebot"
  },
  "Abqjournal.com": {
    "allow_cookies": 1,
    "block_regex": "\\.amazonaws\\.com\\/abq_pw_",
    "domain": "abqjournal.com",
    "useragent": "googlebot"
  },
  "Ara.cat": {
    "allow_cookies": 1,
    "domain": "ara.cat",
    "useragent": "googlebot"
  },
  "Bauernzeitung.ch": {
    "allow_cookies": 1,
    "domain": "bauernzeitung.ch",
    "useragent": "googlebot"
  },
  "Beobachter.ch": {
    "allow_cookies": 1,
    "domain": "beobachter.ch",
    "useragent": "googlebot"
  },
  "Bnn.de": {
    "allow_cookies": 1,
    "domain": "bnn.de",
    "useragent": "googlebot"
  },
  "Brainly.com": {
    "domain": "brainly.com"
  },
  "Calgaryherald.com": {
    "allow_cookies": 1,
    "block_regex": "\\.tinypass\\.com\\/",
    "domain": "calgaryherald.com"
  },
  "Capital.bg": {
    "allow_cookies": 1,
    "domain": "capital.bg",
    "useragent": "googlebot"
  },
  "Chicago.suntimes.com": {
    "allow_cookies": 1,
    "block_regex": "\\.tinypass\\.com\\/",
    "domain": "chicago.suntimes.com"
  },
  "Christianitytoday.com": {
    "allow_cookies": 1,
    "domain": "christianitytoday.com",
    "useragent": "googlebot"
  },
  "Connexionfrance.com": {
    "domain": "connexionfrance.com"
  },
  "Eltiempo.com": {
    "allow_cookies": 1,
    "block_regex": "\\.tinypass\\.com\\/",
    "domain": "eltiempo.com"
  },
  "Eluniversal.com.mx": {
    "allow_cookies": 1,
    "block_regex": "\\.tinypass\\.com\\/",
    "domain": "eluniversal.com.mx"
  },
  "Handelszeitung.ch": {
    "allow_cookies": 1,
    "domain": "handelszeitung.ch",
    "useragent": "googlebot"
  },
  "Heraldscotland.com": {
    "allow_cookies": 1,
    "block_regex": "\\.tinypass\\.com\\/",
    "domain": "heraldscotland.com"
  },
  "Internationalepolitik.de": {
    "allow_cookies": 1,
    "domain": "internationalepolitik.de"
  },
  "Investorschronicle.co.uk": {
    "allow_cookies": 1,
    "domain": "investorschronicle.co.uk",
    "referer": "google"
  },
  "Lindipendente.online": {
    "allow_cookies": 1,
    "domain": "lindipendente.online",
    "useragent": "googlebot"
  },
  "Lsa-conso.fr": {
    "allow_cookies": 1,
    "domain": "lsa-conso.fr",
    "useragent": "googlebot"
  },
  "Luzernerzeitung.ch": {
    "allow_cookies": 1,
    "domain": "luzernerzeitung.ch",
    "useragent": "googlebot"
  },
  "Mailplus.co.uk": {
    "allow_cookies": 1,
    "block_regex": "\\.tinypass\\.com\\/",
    "domain": "mailplus.co.uk"
  },
  "Morgenbladet.no": {
    "allow_cookies": 1,
    "domain": "morgenbladet.no",
    "useragent": "googlebot"
  },
  "Muensterschezeitung.de": {
    "allow_cookies": 1,
    "amp_unhide": 1,
    "domain": "muensterschezeitung.de",
    "useragent": "googlebot"
  },
  "Nationalobserver.com": {
    "allow_cookies": 1,
    "block_regex": "\\.tinypass\\.com\\/",
    "domain": "nationalobserver.com"
  },
  "Pressandjournal.co.uk": {
    "allow_cookies": 1,
    "domain": "pressandjournal.co.uk",
    "useragent": "googlebot"
  },
  "Pv-digest.de": {
    "allow_cookies": 1,
    "domain": "pv-digest.de",
    "useragent": "googlebot"
  },
  "Schweizer-illustrierte.ch": {
    "allow_cookies": 1,
    "block_regex": "\\.tinypass\\.com\\/",
    "domain": "schweizer-illustrierte.ch"
  },
  "Speld.nl": {
    "domain": "speld.nl"
  },
  "Sportico.com": {
    "allow_cookies": 1,
    "block_regex": "\\.tinypass\\.com\\/",
    "domain": "sportico.com"
  },
  "Supchina.com": {
    "allow_cookies": 1,
    "domain": "supchina.com"
  },
  "Tagblatt.ch": {
    "allow_cookies": 1,
    "domain": "tagblatt.ch",
    "useragent": "googlebot"
  },
  "The-japan-news.com": {
    "domain": "the-japan-news.com"
  },
  "The-past.com": {
    "domain": "the-past.com"
  },
  "Thebanker.com": {
    "allow_cookies": 1,
    "domain": "thebanker.com",
    "useragent": "googlebot"
  },
  "Thecourier.co.uk": {
    "allow_cookies": 1,
    "domain": "thecourier.co.uk",
    "useragent": "googlebot"
  },
  "Thenational.scot": {
    "allow_cookies": 1,
    "block_regex": "\\.tinypass\\.com\\/",
    "domain": "thenational.scot"
  },
  "Theweek.com": {
    "allow_cookies": 1,
    "domain": "theweek.com",
    "useragent": "googlebot"
  },
  "Tijorifinance.com": {
    "allow_cookies": 1,
    "domain": "tijorifinance.com",
    "useragent": "googlebot"
  },
  "Voguebusiness.com": {
    "allow_cookies": 1,
    "domain": "voguebusiness.com",
    "useragent": "googlebot"
  },
  "Wz.de": {
    "allow_cookies": 1,
    "domain": "wz.de",
    "useragent": "googlebot"
  }
}

